{
  "Entries": [
    {
      "id": 1,
      "amount": 20000,
      "narration": "Salary Dad"
    },
    {
      "id": 2,
      "amount": 10000,
      "narration": "Salary Brother"
    },
    {
      "id": 3,
      "amount": 7000,
      "narration": "Salary Mom"
    },
    {
      "id": 4,
      "amount": 15000,
      "narration": "Salary Sister"
    },
    {
      "amount": 5500,
      "narration": "nothing",
      "id": 5
    },
    {
      "amount": 2000,
      "narration": "Tution fees",
      "id": 6
    },
    {
      "amount": -12200,
      "narration": "Milk Man",
      "id": 7
    },
    {
      "id": 8,
      "amount": -1500,
      "narration": "Home Rent"
    },
    {
      "id": 9,
      "amount": -1200,
      "narration": "Milk Man"
    },
    {
      "amount": -14500,
      "narration": "Essentials",
      "id": 10
    },
    {
      "id": 11,
      "amount": -1200,
      "narration": "Recharges"
    },
    {
      "amount": -700,
      "narration": "nothing",
      "id": 12
    },
    {
      "amount": -9000,
      "narration": "misc expense",
      "id": 13
    },
    {
      "amount": 900,
      "narration": "misc income",
      "id": 14
    }
  ]
}